%YAML 1.1
%TAG !u! tag:unity3d.com,2011:
--- !u!78 &1
TagManager:
  serializedVersion: 2
  tags:
  - ButterflyController
  - FinalButterfly
  - FinalParticles
  - OscMapObjectActivatorTarget
  layers:
  - Default
  - TransparentFX
  - Ignore Raycast
  - 
  - Water
  - UI
  - 
  - 
  - PostProcessing
  - Worms
  - Emitter
  - Butterfly
  - Figure
  - FogVolumeShadowCaster
  - FogVolume
  - FogVolumeSurrogate
  - FogVolumeUniform
  - SpirographTexture
  - Bars
  - 
  - 
  - 
  - 
  - 
  - 
  - 
  - 
  - 
  - 
  - 
  - 
  - Hidden
  m_SortingLayers:
  - name: Default
    uniqueID: 0
    locked: 0
